[gd_scene load_steps=18 format=3 uid="uid://cn6w2sqw3amv2"]

[ext_resource type="Texture2D" uid="uid://dvov33pjsogbi" path="res://sprites/cave_sheet.png" id="1_xaal7"]
[ext_resource type="Script" path="res://scenes/map_generator.gd" id="2_4sjcw"]

[sub_resource type="NavigationPolygon" id="NavigationPolygon_0ewsf"]
vertices = PackedVector2Array(0, 8, -8, 8, -8, -8, 0, -8)
polygons = Array[PackedInt32Array]([PackedInt32Array(0, 1, 2, 3)])
outlines = Array[PackedVector2Array]([PackedVector2Array(0, 8, -8, 8, -8, -8, 0, -8)])

[sub_resource type="NavigationPolygon" id="NavigationPolygon_i2oga"]
vertices = PackedVector2Array(8, 8, 0, 8, 0, -8, 8, -8)
polygons = Array[PackedInt32Array]([PackedInt32Array(0, 1, 2, 3)])
outlines = Array[PackedVector2Array]([PackedVector2Array(8, 8, 0, 8, 0, -8, 8, -8)])

[sub_resource type="NavigationPolygon" id="NavigationPolygon_wob0s"]
vertices = PackedVector2Array(8, 0, -8, 0, -8, -8, 8, -8)
polygons = Array[PackedInt32Array]([PackedInt32Array(0, 1, 2, 3)])
outlines = Array[PackedVector2Array]([PackedVector2Array(8, 0, -8, 0, -8, -8, 8, -8)])

[sub_resource type="NavigationPolygon" id="NavigationPolygon_f7675"]
vertices = PackedVector2Array(8, 8, -8, 8, -8, 0, 8, 0)
polygons = Array[PackedInt32Array]([PackedInt32Array(0, 1, 2, 3)])
outlines = Array[PackedVector2Array]([PackedVector2Array(8, 8, -8, 8, -8, 0, 8, 0)])

[sub_resource type="NavigationPolygon" id="NavigationPolygon_b3mq7"]
vertices = PackedVector2Array(-8, -8, 8, -8, 8, 8, -8, 8)
polygons = Array[PackedInt32Array]([PackedInt32Array(0, 1, 2, 3)])
outlines = Array[PackedVector2Array]([PackedVector2Array(-8, -8, 8, -8, 8, 8, -8, 8)])

[sub_resource type="NavigationPolygon" id="NavigationPolygon_cj6ee"]
vertices = PackedVector2Array(-8, 0, -8, -8, 8, -8, 0, 0, 8, 8, 0, 8)
polygons = Array[PackedInt32Array]([PackedInt32Array(0, 1, 2, 3), PackedInt32Array(3, 2, 4, 5)])
outlines = Array[PackedVector2Array]([PackedVector2Array(-8, -8, 8, -8, 8, 8, 0, 8, 0, 0, -8, 0)])

[sub_resource type="NavigationPolygon" id="NavigationPolygon_4vhji"]
vertices = PackedVector2Array(0, 0, 0, 8, -8, 8, -8, -8, 8, -8, 8, 0)
polygons = Array[PackedInt32Array]([PackedInt32Array(0, 1, 2, 3), PackedInt32Array(0, 3, 4, 5)])
outlines = Array[PackedVector2Array]([PackedVector2Array(0, 8, -8, 8, -8, -8, 8, -8, 8, 0, 0, 0)])

[sub_resource type="NavigationPolygon" id="NavigationPolygon_prsym"]
vertices = PackedVector2Array(8, 0, 8, 8, -8, 8, 0, 0, -8, -8, 0, -8)
polygons = Array[PackedInt32Array]([PackedInt32Array(0, 1, 2, 3), PackedInt32Array(3, 2, 4, 5)])
outlines = Array[PackedVector2Array]([PackedVector2Array(8, 8, -8, 8, -8, -8, 0, -8, 0, 0, 8, 0)])

[sub_resource type="NavigationPolygon" id="NavigationPolygon_qi12m"]
vertices = PackedVector2Array(8, 8, -8, 8, -8, 0, 0, 0, 8, -8, 0, -8)
polygons = Array[PackedInt32Array]([PackedInt32Array(0, 1, 2, 3), PackedInt32Array(4, 0, 3, 5)])
outlines = Array[PackedVector2Array]([PackedVector2Array(8, 8, -8, 8, -8, 0, 0, 0, 0, -8, 8, -8)])

[sub_resource type="NavigationPolygon" id="NavigationPolygon_jpmuk"]
vertices = PackedVector2Array(8, 8, 0, 8, 0, 0, 8, 0)
polygons = Array[PackedInt32Array]([PackedInt32Array(0, 1, 2, 3)])
outlines = Array[PackedVector2Array]([PackedVector2Array(8, 8, 0, 8, 0, 0, 8, 0)])

[sub_resource type="NavigationPolygon" id="NavigationPolygon_13udk"]
vertices = PackedVector2Array(0, 8, -8, 8, -8, 0, 0, 0)
polygons = Array[PackedInt32Array]([PackedInt32Array(0, 1, 2, 3)])
outlines = Array[PackedVector2Array]([PackedVector2Array(0, 8, -8, 8, -8, 0, 0, 0)])

[sub_resource type="NavigationPolygon" id="NavigationPolygon_82oxd"]
vertices = PackedVector2Array(8, 0, 0, 0, 0, -8, 8, -8)
polygons = Array[PackedInt32Array]([PackedInt32Array(0, 1, 2, 3)])
outlines = Array[PackedVector2Array]([PackedVector2Array(8, 0, 0, 0, 0, -8, 8, -8)])

[sub_resource type="NavigationPolygon" id="NavigationPolygon_fkcqb"]
vertices = PackedVector2Array(0, 0, -8, 0, -8, -8, 0, -8)
polygons = Array[PackedInt32Array]([PackedInt32Array(0, 1, 2, 3)])
outlines = Array[PackedVector2Array]([PackedVector2Array(0, 0, -8, 0, -8, -8, 0, -8)])

[sub_resource type="TileSetAtlasSource" id="TileSetAtlasSource_sfuf6"]
texture = ExtResource("1_xaal7")
0:0/next_alternative_id = 4
0:0/0 = 0
0:0/0/terrain_set = 0
0:0/0/physics_layer_0/linear_velocity = Vector2(0, 0)
0:0/0/physics_layer_0/angular_velocity = 0.0
0:0/0/physics_layer_0/polygon_0/points = PackedVector2Array(8, -8, 8, 8, 0, 8, 0, -8)
0:0/0/terrains_peering_bit/right_side = 1
0:0/0/terrains_peering_bit/bottom_right_corner = 1
0:0/0/terrains_peering_bit/bottom_left_corner = 0
0:0/0/terrains_peering_bit/left_side = 0
0:0/0/terrains_peering_bit/top_left_corner = 0
0:0/0/terrains_peering_bit/top_right_corner = 1
0:0/0/navigation_layer_0/polygon = SubResource("NavigationPolygon_0ewsf")
0:0/1 = 1
0:0/1/flip_h = true
0:0/1/terrain_set = 0
0:0/1/physics_layer_0/linear_velocity = Vector2(0, 0)
0:0/1/physics_layer_0/angular_velocity = 0.0
0:0/1/physics_layer_0/polygon_0/points = PackedVector2Array(0, -8, 0, 8, -8, 8, -8, -8)
0:0/1/terrains_peering_bit/right_side = 0
0:0/1/terrains_peering_bit/bottom_right_corner = 0
0:0/1/terrains_peering_bit/bottom_left_corner = 1
0:0/1/terrains_peering_bit/left_side = 1
0:0/1/terrains_peering_bit/top_left_corner = 1
0:0/1/terrains_peering_bit/top_right_corner = 0
0:0/1/navigation_layer_0/polygon = SubResource("NavigationPolygon_i2oga")
0:0/2 = 2
0:0/2/transpose = true
0:0/2/terrain_set = 0
0:0/2/physics_layer_0/linear_velocity = Vector2(0, 0)
0:0/2/physics_layer_0/angular_velocity = 0.0
0:0/2/physics_layer_0/polygon_0/points = PackedVector2Array(8, 0, 8, 8, -8, 8, -8, 0)
0:0/2/terrains_peering_bit/bottom_right_corner = 1
0:0/2/terrains_peering_bit/bottom_side = 1
0:0/2/terrains_peering_bit/bottom_left_corner = 1
0:0/2/terrains_peering_bit/top_left_corner = 0
0:0/2/terrains_peering_bit/top_side = 0
0:0/2/terrains_peering_bit/top_right_corner = 0
0:0/2/navigation_layer_0/polygon = SubResource("NavigationPolygon_wob0s")
0:0/3 = 3
0:0/3/flip_v = true
0:0/3/transpose = true
0:0/3/terrain_set = 0
0:0/3/physics_layer_0/linear_velocity = Vector2(0, 0)
0:0/3/physics_layer_0/angular_velocity = 0.0
0:0/3/physics_layer_0/polygon_0/points = PackedVector2Array(8, 0, 8, -8, -8, -8, -8, 0)
0:0/3/terrains_peering_bit/bottom_right_corner = 0
0:0/3/terrains_peering_bit/bottom_side = 0
0:0/3/terrains_peering_bit/bottom_left_corner = 0
0:0/3/terrains_peering_bit/top_left_corner = 1
0:0/3/terrains_peering_bit/top_side = 1
0:0/3/terrains_peering_bit/top_right_corner = 1
0:0/3/navigation_layer_0/polygon = SubResource("NavigationPolygon_f7675")
1:0/0 = 0
1:0/0/terrain_set = 0
1:0/0/probability = 15.0
1:0/0/physics_layer_0/linear_velocity = Vector2(0, 0)
1:0/0/physics_layer_0/angular_velocity = 0.0
1:0/0/physics_layer_0/polygon_0/points = PackedVector2Array(8, -8, 8, 8, -8, 8, -8, -8)
1:0/0/terrains_peering_bit/right_side = 1
1:0/0/terrains_peering_bit/bottom_right_corner = 1
1:0/0/terrains_peering_bit/bottom_side = 1
1:0/0/terrains_peering_bit/bottom_left_corner = 1
1:0/0/terrains_peering_bit/left_side = 1
1:0/0/terrains_peering_bit/top_left_corner = 1
1:0/0/terrains_peering_bit/top_side = 1
1:0/0/terrains_peering_bit/top_right_corner = 1
2:0/0 = 0
2:0/0/terrain_set = 0
2:0/0/probability = 50.0
2:0/0/physics_layer_0/linear_velocity = Vector2(0, 0)
2:0/0/physics_layer_0/angular_velocity = 0.0
2:0/0/terrains_peering_bit/right_side = 0
2:0/0/terrains_peering_bit/bottom_right_corner = 0
2:0/0/terrains_peering_bit/bottom_side = 0
2:0/0/terrains_peering_bit/bottom_left_corner = 0
2:0/0/terrains_peering_bit/left_side = 0
2:0/0/terrains_peering_bit/top_left_corner = 0
2:0/0/terrains_peering_bit/top_side = 0
2:0/0/terrains_peering_bit/top_right_corner = 0
2:0/0/navigation_layer_0/polygon = SubResource("NavigationPolygon_b3mq7")
3:0/next_alternative_id = 5
3:0/0 = 0
3:0/0/terrain_set = 0
3:0/0/physics_layer_0/linear_velocity = Vector2(0, 0)
3:0/0/physics_layer_0/angular_velocity = 0.0
3:0/0/physics_layer_0/polygon_0/points = PackedVector2Array(0, 0, 0, 8, -8, 8, -8, 0)
3:0/0/terrains_peering_bit/right_side = 0
3:0/0/terrains_peering_bit/bottom_right_corner = 0
3:0/0/terrains_peering_bit/bottom_left_corner = 1
3:0/0/terrains_peering_bit/top_left_corner = 0
3:0/0/terrains_peering_bit/top_side = 0
3:0/0/terrains_peering_bit/top_right_corner = 0
3:0/0/navigation_layer_0/polygon = SubResource("NavigationPolygon_cj6ee")
3:0/1 = 1
3:0/1/flip_h = true
3:0/1/terrain_set = 0
3:0/1/physics_layer_0/linear_velocity = Vector2(0, 0)
3:0/1/physics_layer_0/angular_velocity = 0.0
3:0/1/physics_layer_0/polygon_0/points = PackedVector2Array(8, 8, 8, 0, 0, 0, 0, 8)
3:0/1/terrains_peering_bit/bottom_right_corner = 1
3:0/1/terrains_peering_bit/bottom_left_corner = 0
3:0/1/terrains_peering_bit/left_side = 0
3:0/1/terrains_peering_bit/top_left_corner = 0
3:0/1/terrains_peering_bit/top_side = 0
3:0/1/terrains_peering_bit/top_right_corner = 0
3:0/1/navigation_layer_0/polygon = SubResource("NavigationPolygon_4vhji")
3:0/2 = 2
3:0/2/transpose = true
3:0/2/terrain_set = 0
3:0/2/physics_layer_0/linear_velocity = Vector2(0, 0)
3:0/2/physics_layer_0/angular_velocity = 0.0
3:0/2/physics_layer_0/polygon_0/points = PackedVector2Array(8, 0, 8, -8, 0, -8, 0, 0)
3:0/2/terrains_peering_bit/bottom_right_corner = 0
3:0/2/terrains_peering_bit/bottom_side = 0
3:0/2/terrains_peering_bit/bottom_left_corner = 0
3:0/2/terrains_peering_bit/left_side = 0
3:0/2/terrains_peering_bit/top_left_corner = 0
3:0/2/terrains_peering_bit/top_right_corner = 1
3:0/2/navigation_layer_0/polygon = SubResource("NavigationPolygon_prsym")
3:0/3 = 3
3:0/3/flip_h = true
3:0/3/transpose = true
3:0/3/terrain_set = 0
3:0/3/physics_layer_0/linear_velocity = Vector2(0, 0)
3:0/3/physics_layer_0/angular_velocity = 0.0
3:0/3/physics_layer_0/polygon_0/points = PackedVector2Array(0, 0, 0, -8, -8, -8, -8, 0)
3:0/3/terrains_peering_bit/right_side = 0
3:0/3/terrains_peering_bit/bottom_right_corner = 0
3:0/3/terrains_peering_bit/bottom_side = 0
3:0/3/terrains_peering_bit/bottom_left_corner = 0
3:0/3/terrains_peering_bit/top_left_corner = 1
3:0/3/terrains_peering_bit/top_right_corner = 0
3:0/3/navigation_layer_0/polygon = SubResource("NavigationPolygon_qi12m")
4:0/next_alternative_id = 4
4:0/0 = 0
4:0/0/terrain_set = 0
4:0/0/physics_layer_0/linear_velocity = Vector2(0, 0)
4:0/0/physics_layer_0/angular_velocity = 0.0
4:0/0/physics_layer_0/polygon_0/points = PackedVector2Array(0, 0, 8, 0, 8, -8, -8, -8, -8, 8, 0, 8)
4:0/0/terrains_peering_bit/bottom_right_corner = 0
4:0/0/terrains_peering_bit/bottom_left_corner = 1
4:0/0/terrains_peering_bit/left_side = 1
4:0/0/terrains_peering_bit/top_left_corner = 1
4:0/0/terrains_peering_bit/top_side = 1
4:0/0/terrains_peering_bit/top_right_corner = 1
4:0/0/navigation_layer_0/polygon = SubResource("NavigationPolygon_jpmuk")
4:0/1 = 1
4:0/1/flip_h = true
4:0/1/terrain_set = 0
4:0/1/physics_layer_0/linear_velocity = Vector2(0, 0)
4:0/1/physics_layer_0/angular_velocity = 0.0
4:0/1/physics_layer_0/polygon_0/points = PackedVector2Array(8, 8, 8, -8, -8, -8, -8, 0, 0, 0, 0, 8)
4:0/1/terrains_peering_bit/right_side = 1
4:0/1/terrains_peering_bit/bottom_right_corner = 1
4:0/1/terrains_peering_bit/bottom_left_corner = 0
4:0/1/terrains_peering_bit/top_left_corner = 1
4:0/1/terrains_peering_bit/top_side = 1
4:0/1/terrains_peering_bit/top_right_corner = 1
4:0/1/navigation_layer_0/polygon = SubResource("NavigationPolygon_13udk")
4:0/2 = 2
4:0/2/flip_v = true
4:0/2/terrain_set = 0
4:0/2/physics_layer_0/linear_velocity = Vector2(0, 0)
4:0/2/physics_layer_0/angular_velocity = 0.0
4:0/2/physics_layer_0/polygon_0/points = PackedVector2Array(8, 8, 8, 0, 0, 0, 0, -8, -8, -8, -8, 8)
4:0/2/terrains_peering_bit/bottom_right_corner = 1
4:0/2/terrains_peering_bit/bottom_side = 1
4:0/2/terrains_peering_bit/bottom_left_corner = 1
4:0/2/terrains_peering_bit/left_side = 1
4:0/2/terrains_peering_bit/top_left_corner = 1
4:0/2/terrains_peering_bit/top_right_corner = 0
4:0/2/navigation_layer_0/polygon = SubResource("NavigationPolygon_82oxd")
4:0/3 = 3
4:0/3/flip_h = true
4:0/3/flip_v = true
4:0/3/terrain_set = 0
4:0/3/physics_layer_0/linear_velocity = Vector2(0, 0)
4:0/3/physics_layer_0/angular_velocity = 0.0
4:0/3/physics_layer_0/polygon_0/points = PackedVector2Array(8, 8, 8, -8, 0, -8, 0, 0, -8, 0, -8, 8)
4:0/3/terrains_peering_bit/right_side = 1
4:0/3/terrains_peering_bit/bottom_right_corner = 1
4:0/3/terrains_peering_bit/bottom_side = 1
4:0/3/terrains_peering_bit/bottom_left_corner = 1
4:0/3/terrains_peering_bit/top_left_corner = 0
4:0/3/terrains_peering_bit/top_right_corner = 1
4:0/3/navigation_layer_0/polygon = SubResource("NavigationPolygon_fkcqb")

[sub_resource type="TileSet" id="TileSet_mgiao"]
physics_layer_0/collision_layer = 32
physics_layer_0/collision_mask = 0
terrain_set_0/mode = 0
terrain_set_0/terrain_0/name = "Ground"
terrain_set_0/terrain_0/color = Color(0.5, 0.4375, 0.25, 1)
terrain_set_0/terrain_1/name = "Wall"
terrain_set_0/terrain_1/color = Color(0.886275, 0.439216, 0.25098, 1)
navigation_layer_0/layers = 1
sources/0 = SubResource("TileSetAtlasSource_sfuf6")

[node name="MapGenerator" type="TileMap"]
position = Vector2(56, 56)
tile_set = SubResource("TileSet_mgiao")
format = 2
script = ExtResource("2_4sjcw")
