[gd_scene load_steps=2 format=3 uid="uid://b5aucllupffn7"]

[ext_resource type="Script" path="res://scenes/UpgradeManager.gd" id="1_5vkd5"]

[node name="UpgradeManager" type="Node"]
script = ExtResource("1_5vkd5")
