; Engine configuration file.
; It's best edited using the editor UI and not directly,
; since the parameters that go here are not all obvious.
;
; Format:
;   [section] ; section goes between []
;   param=value ; assign values to parameters

config_version=5

[application]

config/name="Makeshift Majesty"
run/main_scene="res://scenes/Main.tscn"
config/features=PackedStringArray("4.1", "GL Compatibility")

[autoload]

Panku="*res://addons/panku_console/console.tscn"

[editor_plugins]

enabled=PackedStringArray("res://addons/godot_state_charts/plugin.cfg", "res://addons/panku_console/plugin.cfg")

[layer_names]

2d_physics/layer_1="Units"
2d_physics/layer_2="Buildings"
2d_physics/layer_3="Objects"
2d_physics/layer_4="Sensor"
2d_physics/layer_5="Projectile"
2d_physics/layer_6="Wall"

[rendering]

textures/canvas_textures/default_texture_filter=0
renderer/rendering_method.mobile="gl_compatibility"
