[gd_scene load_steps=3 format=3 uid="uid://bgou4m01mu1jh"]

[ext_resource type="Script" path="res://components/AttackComponent.gd" id="1_axe06"]
[ext_resource type="PackedScene" uid="uid://btfebw1pnruyg" path="res://scenes/projectile.tscn" id="2_f41qw"]

[node name="AttackComponent" type="Node2D"]
script = ExtResource("1_axe06")
Projectile = ExtResource("2_f41qw")
