[gd_scene load_steps=2 format=3 uid="uid://3qs612jdyqjg"]

[ext_resource type="Script" path="res://components/faction.gd" id="1_nu5cw"]

[node name="Faction" type="Node"]
script = ExtResource("1_nu5cw")
