[gd_scene load_steps=2 format=3 uid="uid://c4yow5xm224jj"]

[ext_resource type="Script" path="res://components/memory.gd" id="1_yqexe"]

[node name="Memory" type="Node"]
script = ExtResource("1_yqexe")
